{
  "headline": "Register now for",
  "logoUrl": "https:\/\/prod.drive-now-content.com\/fileadmin\/user_upload_it\/assets\/registration\/reg-head-img.png",
  "price": "\u20ac0",
  "fullHeadline": "Register now for {price} incl. {bonusMinutes}.",
  "bonusMinutes": "20 bonus minutes",
  "segments": [
    {
      "id": "loginDetails",
      "statusbar": true,
      "removeTitle": false,
      "section": 1,
      "elements": [
        {
          "type": "tenantSelector",
          "id": "tenantSelector",
          "infotext": "Please select the country where you will mainly use DriveNow.",
          "currentTenant": "IT",
          "webRegistrations": {
            "DK": {
              "url": "https:\/\/m.drive-now.com\/registration\/1?tenant=DK",
              "dialogText": "To register for DriveNow Denmark you will be redirected to the DriveNow mobile website."
            },
            "SE": {
              "url": "https:\/\/m.drive-now.com\/registration\/1?tenant=SE",
              "dialogText": "To register for DriveNow Sweden you will be redirected to the DriveNow mobile website."
            }
          },
          "options": [
            {
              "value": "DE",
              "text": "Germany"
            },
            {
              "value": "GB",
              "text": "United Kingdom"
            },
            {
              "value": "BE",
              "text": "Belgium"
            },
            {
              "value": "AT",
              "text": "Austria"
            },
            {
              "value": "DK",
              "text": "Denmark"
            },
            {
              "value": "SE",
              "text": "Sweden"
            },
            {
              "value": "IT",
              "text": "Italy"
            }
          ]
        },
        {
          "type": "input",
          "id": "email",
          "label": "E-mail address",
          "error": "Please enter a valid e-mail address",
          "infotext": "Your e-mail address serves as login into the Customer Area.",
          "style": {
            "width": "double"
          },
          "validation": {
            "required": true,
            "pattern": "email"
          }
        },
        {
          "type": "password",
          "id": "password",
          "label": "Set password",
          "error": "Please enter a valid password",
          "infotext": "Your password serves as login into the Customer Area. The minimum of eight and maximum of fifteen characters needs to contain at least one letter (a-z) and at least two numbers (0-9) or special characters (-,_,#,(,),@,\u00a7,!,%,&,$). The password can not contain \u00e5, \u00e4, \u00f6.",
          "validation": {
            "required": true,
            "pattern": "password"
          }
        },
        {
          "type": "pin",
          "id": "pin",
          "label": "Please choose a PIN for login in the car (4 digits)",
          "error": "Enter PIN consisting of 4 digits",
          "infotext": "You will need your 4-digit PIN to identify yourself when you arrive at the car.",
          "validation": {
            "required": true,
            "pattern": "digits",
            "length": 4
          }
        },
        {
          "type": "select",
          "id": "securityQuestion",
          "label": "Security question",
          "error": "Please select a security question",
          "infotext": "Use the security question to authenticate yourself at customer service. The answer must contain a minimum of 3 characters.",
          "validation": {
            "required": true
          },
          "options": [
            {
              "value": "Favorite dish",
              "text": "Favorite dish"
            },
            {
              "value": "Favorite movie",
              "text": "Favorite movie"
            },
            {
              "value": "Mother`s maiden name",
              "text": "Mother`s maiden name"
            }
          ]
        },
        {
          "type": "input",
          "id": "securityAnswer",
          "label": "Answer",
          "error": "Please enter security answer",
          "infotext": "Use the security question to authenticate yourself at customer service. The answer must contain a minimum of 3 characters.",
          "validation": {
            "required": true,
            "minLength": 3,
            "maxLength": 30
          }
        }
      ],
      "statusbarText": "Account",
      "statusIconUrl": "\/assets\/desktop\/dynreg\/logindetails.png",
      "statusIconUrlActive": "\/assets\/desktop\/dynreg\/logindetails_active.png",
      "header": "Login"
    },
    {
      "id": "primaryDetails",
      "statusbar": true,
      "removeTitle": false,
      "section": 2,
      "elements": [
        {
          "type": "select",
          "id": "gender",
          "label": "Gender",
          "error": "Please select gender",
          "validation": {
            "required": true
          },
          "options": [
            {
              "value": "M",
              "text": "Male"
            },
            {
              "value": "F",
              "text": "Female"
            }
          ]
        },
        {
          "type": "input",
          "id": "firstName",
          "label": "First name",
          "error": "Please enter first name",
          "style": {
            "width": "newLine"
          },
          "validation": {
            "required": true,
            "minLength": 2,
            "maxLength": 30
          }
        },
        {
          "type": "input",
          "id": "lastName",
          "label": "Last name",
          "error": "Please enter last name",
          "validation": {
            "required": true,
            "minLength": 2,
            "maxLength": 60
          }
        },
        {
          "type": "googleAutocomplete",
          "id": "street",
          "label": "Street",
          "error": "Please enter street",
          "style": {
            "width": "p80",
            "align": "left"
          },
          "validation": {
            "required": true,
            "maxLength": 30
          },
          "fillmap": {
            "locality,administrative_area_level_1": "city",
            "route": "street",
            "postal_code": "areaCode",
            "country": "country",
            "street_number": "streetNumber"
          }
        },
        {
          "type": "input",
          "id": "streetNumber",
          "style": {
            "width": "p20",
            "align": "right"
          },
          "validation": {
            "required": true,
            "maxLength": 30
          },
          "label": "No.",
          "error": "No."
        },
        {
          "type": "input",
          "id": "streetAddition",
          "label": "Additional address line (optional)",
          "validation": {
            "maxLength": 30
          }
        },
        {
          "type": "input",
          "id": "areaCode",
          "label": "Postcode",
          "error": "Postcode",
          "style": {
            "width": "p30",
            "align": "left"
          },
          "validation": {
            "required": true,
            "maxLength": 10
          }
        },
        {
          "type": "input",
          "id": "city",
          "label": "City",
          "error": "Please enter city",
          "style": {
            "width": "p70",
            "align": "right"
          },
          "validation": {
            "required": true,
            "maxLength": 30
          }
        },
        {
          "type": "select",
          "id": "country",
          "label": "Country",
          "error": "Please select country",
          "validation": {
            "required": true
          },
          "fillCountryCode": "mobileNumber",
          "infotext": "Depending on your selection of country of residence on the previous page, this entry field could be prefilled.",
          "options": [
            {
              "value": "IT",
              "text": "Italy"
            },
            {
              "value": "AF",
              "text": "Afghanistan"
            },
            {
              "value": "AL",
              "text": "Albania"
            },
            {
              "value": "DZ",
              "text": "Algeria"
            },
            {
              "value": "AS",
              "text": "American Samoa"
            },
            {
              "value": "AD",
              "text": "Andorra"
            },
            {
              "value": "AO",
              "text": "Angola"
            },
            {
              "value": "AI",
              "text": "Anguilla"
            },
            {
              "value": "AQ",
              "text": "Antarctica"
            },
            {
              "value": "AG",
              "text": "Antigua & Barbuda"
            },
            {
              "value": "AR",
              "text": "Argentina"
            },
            {
              "value": "AM",
              "text": "Armenia"
            },
            {
              "value": "AW",
              "text": "Aruba"
            },
            {
              "value": "AC",
              "text": "Ascension Island"
            },
            {
              "value": "AU",
              "text": "Australia"
            },
            {
              "value": "AT",
              "text": "Austria"
            },
            {
              "value": "AZ",
              "text": "Azerbaijan"
            },
            {
              "value": "BS",
              "text": "Bahamas"
            },
            {
              "value": "BH",
              "text": "Bahrain"
            },
            {
              "value": "BD",
              "text": "Bangladesh"
            },
            {
              "value": "BB",
              "text": "Barbados"
            },
            {
              "value": "BY",
              "text": "Belarus"
            },
            {
              "value": "BE",
              "text": "Belgium"
            },
            {
              "value": "BZ",
              "text": "Belize"
            },
            {
              "value": "BJ",
              "text": "Benin"
            },
            {
              "value": "BM",
              "text": "Bermuda"
            },
            {
              "value": "BT",
              "text": "Bhutan"
            },
            {
              "value": "BO",
              "text": "Bolivia"
            },
            {
              "value": "BA",
              "text": "Bosnia & Herzegovina"
            },
            {
              "value": "BW",
              "text": "Botswana"
            },
            {
              "value": "BR",
              "text": "Brazil"
            },
            {
              "value": "IO",
              "text": "British Indian Ocean Territory"
            },
            {
              "value": "VG",
              "text": "British Virgin Islands"
            },
            {
              "value": "BN",
              "text": "Brunei"
            },
            {
              "value": "BG",
              "text": "Bulgaria"
            },
            {
              "value": "BF",
              "text": "Burkina Faso"
            },
            {
              "value": "BI",
              "text": "Burundi"
            },
            {
              "value": "KH",
              "text": "Cambodia"
            },
            {
              "value": "CM",
              "text": "Cameroon"
            },
            {
              "value": "CA",
              "text": "Canada"
            },
            {
              "value": "IC",
              "text": "Canary Islands"
            },
            {
              "value": "CV",
              "text": "Cape Verde"
            },
            {
              "value": "BQ",
              "text": "Caribbean Netherlands"
            },
            {
              "value": "KY",
              "text": "Cayman Islands"
            },
            {
              "value": "CF",
              "text": "Central African Republic"
            },
            {
              "value": "EA",
              "text": "Ceuta & Melilla"
            },
            {
              "value": "TD",
              "text": "Chad"
            },
            {
              "value": "CL",
              "text": "Chile"
            },
            {
              "value": "CN",
              "text": "China"
            },
            {
              "value": "CX",
              "text": "Christmas Island"
            },
            {
              "value": "CC",
              "text": "Cocos (Keeling) Islands"
            },
            {
              "value": "CO",
              "text": "Colombia"
            },
            {
              "value": "KM",
              "text": "Comoros"
            },
            {
              "value": "CG",
              "text": "Congo - Brazzaville"
            },
            {
              "value": "CD",
              "text": "Congo - Kinshasa"
            },
            {
              "value": "CK",
              "text": "Cook Islands"
            },
            {
              "value": "CR",
              "text": "Costa Rica"
            },
            {
              "value": "HR",
              "text": "Croatia"
            },
            {
              "value": "CU",
              "text": "Cuba"
            },
            {
              "value": "CW",
              "text": "Cura\u00e7ao"
            },
            {
              "value": "CY",
              "text": "Cyprus"
            },
            {
              "value": "CZ",
              "text": "Czech Republic"
            },
            {
              "value": "CI",
              "text": "C\u00f4te d\u2019Ivoire"
            },
            {
              "value": "DK",
              "text": "Denmark"
            },
            {
              "value": "DG",
              "text": "Diego Garcia"
            },
            {
              "value": "DJ",
              "text": "Djibouti"
            },
            {
              "value": "DM",
              "text": "Dominica"
            },
            {
              "value": "DO",
              "text": "Dominican Republic"
            },
            {
              "value": "EC",
              "text": "Ecuador"
            },
            {
              "value": "EG",
              "text": "Egypt"
            },
            {
              "value": "SV",
              "text": "El Salvador"
            },
            {
              "value": "GQ",
              "text": "Equatorial Guinea"
            },
            {
              "value": "ER",
              "text": "Eritrea"
            },
            {
              "value": "EE",
              "text": "Estonia"
            },
            {
              "value": "ET",
              "text": "Ethiopia"
            },
            {
              "value": "FK",
              "text": "Falkland Islands"
            },
            {
              "value": "FO",
              "text": "Faroe Islands"
            },
            {
              "value": "FJ",
              "text": "Fiji"
            },
            {
              "value": "FI",
              "text": "Finland"
            },
            {
              "value": "FR",
              "text": "France"
            },
            {
              "value": "GF",
              "text": "French Guiana"
            },
            {
              "value": "PF",
              "text": "French Polynesia"
            },
            {
              "value": "TF",
              "text": "French Southern Territories"
            },
            {
              "value": "GA",
              "text": "Gabon"
            },
            {
              "value": "GM",
              "text": "Gambia"
            },
            {
              "value": "GE",
              "text": "Georgia"
            },
            {
              "value": "DE",
              "text": "Germany"
            },
            {
              "value": "GH",
              "text": "Ghana"
            },
            {
              "value": "GI",
              "text": "Gibraltar"
            },
            {
              "value": "GR",
              "text": "Greece"
            },
            {
              "value": "GL",
              "text": "Greenland"
            },
            {
              "value": "GD",
              "text": "Grenada"
            },
            {
              "value": "GP",
              "text": "Guadeloupe"
            },
            {
              "value": "GU",
              "text": "Guam"
            },
            {
              "value": "GT",
              "text": "Guatemala"
            },
            {
              "value": "GG",
              "text": "Guernsey"
            },
            {
              "value": "GN",
              "text": "Guinea"
            },
            {
              "value": "GW",
              "text": "Guinea-Bissau"
            },
            {
              "value": "GY",
              "text": "Guyana"
            },
            {
              "value": "HT",
              "text": "Haiti"
            },
            {
              "value": "HN",
              "text": "Honduras"
            },
            {
              "value": "HK",
              "text": "Hong Kong SAR China"
            },
            {
              "value": "HU",
              "text": "Hungary"
            },
            {
              "value": "IS",
              "text": "Iceland"
            },
            {
              "value": "IN",
              "text": "India"
            },
            {
              "value": "ID",
              "text": "Indonesia"
            },
            {
              "value": "IR",
              "text": "Iran"
            },
            {
              "value": "IQ",
              "text": "Iraq"
            },
            {
              "value": "IE",
              "text": "Ireland"
            },
            {
              "value": "IM",
              "text": "Isle of Man"
            },
            {
              "value": "IL",
              "text": "Israel"
            },
            {
              "value": "JM",
              "text": "Jamaica"
            },
            {
              "value": "JP",
              "text": "Japan"
            },
            {
              "value": "JE",
              "text": "Jersey"
            },
            {
              "value": "JO",
              "text": "Jordan"
            },
            {
              "value": "KZ",
              "text": "Kazakhstan"
            },
            {
              "value": "KE",
              "text": "Kenya"
            },
            {
              "value": "KI",
              "text": "Kiribati"
            },
            {
              "value": "XK",
              "text": "Kosovo"
            },
            {
              "value": "KW",
              "text": "Kuwait"
            },
            {
              "value": "KG",
              "text": "Kyrgyzstan"
            },
            {
              "value": "LA",
              "text": "Laos"
            },
            {
              "value": "LV",
              "text": "Latvia"
            },
            {
              "value": "LB",
              "text": "Lebanon"
            },
            {
              "value": "LS",
              "text": "Lesotho"
            },
            {
              "value": "LR",
              "text": "Liberia"
            },
            {
              "value": "LY",
              "text": "Libya"
            },
            {
              "value": "LI",
              "text": "Liechtenstein"
            },
            {
              "value": "LT",
              "text": "Lithuania"
            },
            {
              "value": "LU",
              "text": "Luxembourg"
            },
            {
              "value": "MO",
              "text": "Macau SAR China"
            },
            {
              "value": "MK",
              "text": "Macedonia"
            },
            {
              "value": "MG",
              "text": "Madagascar"
            },
            {
              "value": "MW",
              "text": "Malawi"
            },
            {
              "value": "MY",
              "text": "Malaysia"
            },
            {
              "value": "MV",
              "text": "Maldives"
            },
            {
              "value": "ML",
              "text": "Mali"
            },
            {
              "value": "MT",
              "text": "Malta"
            },
            {
              "value": "MH",
              "text": "Marshall Islands"
            },
            {
              "value": "MQ",
              "text": "Martinique"
            },
            {
              "value": "MR",
              "text": "Mauritania"
            },
            {
              "value": "MU",
              "text": "Mauritius"
            },
            {
              "value": "YT",
              "text": "Mayotte"
            },
            {
              "value": "MX",
              "text": "Mexico"
            },
            {
              "value": "FM",
              "text": "Micronesia"
            },
            {
              "value": "MD",
              "text": "Moldova"
            },
            {
              "value": "MC",
              "text": "Monaco"
            },
            {
              "value": "MN",
              "text": "Mongolia"
            },
            {
              "value": "ME",
              "text": "Montenegro"
            },
            {
              "value": "MS",
              "text": "Montserrat"
            },
            {
              "value": "MA",
              "text": "Morocco"
            },
            {
              "value": "MZ",
              "text": "Mozambique"
            },
            {
              "value": "MM",
              "text": "Myanmar (Burma)"
            },
            {
              "value": "NA",
              "text": "Namibia"
            },
            {
              "value": "NR",
              "text": "Nauru"
            },
            {
              "value": "NP",
              "text": "Nepal"
            },
            {
              "value": "NL",
              "text": "Netherlands"
            },
            {
              "value": "NC",
              "text": "New Caledonia"
            },
            {
              "value": "NZ",
              "text": "New Zealand"
            },
            {
              "value": "NI",
              "text": "Nicaragua"
            },
            {
              "value": "NE",
              "text": "Niger"
            },
            {
              "value": "NG",
              "text": "Nigeria"
            },
            {
              "value": "NU",
              "text": "Niue"
            },
            {
              "value": "NF",
              "text": "Norfolk Island"
            },
            {
              "value": "KP",
              "text": "North Korea"
            },
            {
              "value": "MP",
              "text": "Northern Mariana Islands"
            },
            {
              "value": "NO",
              "text": "Norway"
            },
            {
              "value": "OM",
              "text": "Oman"
            },
            {
              "value": "PK",
              "text": "Pakistan"
            },
            {
              "value": "PW",
              "text": "Palau"
            },
            {
              "value": "PS",
              "text": "Palestinian Territories"
            },
            {
              "value": "PA",
              "text": "Panama"
            },
            {
              "value": "PG",
              "text": "Papua New Guinea"
            },
            {
              "value": "PY",
              "text": "Paraguay"
            },
            {
              "value": "PE",
              "text": "Peru"
            },
            {
              "value": "PH",
              "text": "Philippines"
            },
            {
              "value": "PN",
              "text": "Pitcairn Islands"
            },
            {
              "value": "PL",
              "text": "Poland"
            },
            {
              "value": "PT",
              "text": "Portugal"
            },
            {
              "value": "PR",
              "text": "Puerto Rico"
            },
            {
              "value": "QA",
              "text": "Qatar"
            },
            {
              "value": "RO",
              "text": "Romania"
            },
            {
              "value": "RU",
              "text": "Russia"
            },
            {
              "value": "RW",
              "text": "Rwanda"
            },
            {
              "value": "RE",
              "text": "R\u00e9union"
            },
            {
              "value": "WS",
              "text": "Samoa"
            },
            {
              "value": "SM",
              "text": "San Marino"
            },
            {
              "value": "SA",
              "text": "Saudi Arabia"
            },
            {
              "value": "SN",
              "text": "Senegal"
            },
            {
              "value": "RS",
              "text": "Serbia"
            },
            {
              "value": "SC",
              "text": "Seychelles"
            },
            {
              "value": "SL",
              "text": "Sierra Leone"
            },
            {
              "value": "SG",
              "text": "Singapore"
            },
            {
              "value": "SX",
              "text": "Sint Maarten"
            },
            {
              "value": "SK",
              "text": "Slovakia"
            },
            {
              "value": "SI",
              "text": "Slovenia"
            },
            {
              "value": "SB",
              "text": "Solomon Islands"
            },
            {
              "value": "SO",
              "text": "Somalia"
            },
            {
              "value": "ZA",
              "text": "South Africa"
            },
            {
              "value": "GS",
              "text": "South Georgia & South Sandwich Islands"
            },
            {
              "value": "KR",
              "text": "South Korea"
            },
            {
              "value": "SS",
              "text": "South Sudan"
            },
            {
              "value": "ES",
              "text": "Spain"
            },
            {
              "value": "LK",
              "text": "Sri Lanka"
            },
            {
              "value": "BL",
              "text": "St. Barth\u00e9lemy"
            },
            {
              "value": "SH",
              "text": "St. Helena"
            },
            {
              "value": "KN",
              "text": "St. Kitts & Nevis"
            },
            {
              "value": "LC",
              "text": "St. Lucia"
            },
            {
              "value": "MF",
              "text": "St. Martin"
            },
            {
              "value": "PM",
              "text": "St. Pierre & Miquelon"
            },
            {
              "value": "VC",
              "text": "St. Vincent & Grenadines"
            },
            {
              "value": "SD",
              "text": "Sudan"
            },
            {
              "value": "SR",
              "text": "Suriname"
            },
            {
              "value": "SJ",
              "text": "Svalbard & Jan Mayen"
            },
            {
              "value": "SZ",
              "text": "Swaziland"
            },
            {
              "value": "SE",
              "text": "Sweden"
            },
            {
              "value": "CH",
              "text": "Switzerland"
            },
            {
              "value": "SY",
              "text": "Syria"
            },
            {
              "value": "ST",
              "text": "S\u00e3o Tom\u00e9 & Pr\u00edncipe"
            },
            {
              "value": "TW",
              "text": "Taiwan"
            },
            {
              "value": "TJ",
              "text": "Tajikistan"
            },
            {
              "value": "TZ",
              "text": "Tanzania"
            },
            {
              "value": "TH",
              "text": "Thailand"
            },
            {
              "value": "TL",
              "text": "Timor-Leste"
            },
            {
              "value": "TG",
              "text": "Togo"
            },
            {
              "value": "TK",
              "text": "Tokelau"
            },
            {
              "value": "TO",
              "text": "Tonga"
            },
            {
              "value": "TT",
              "text": "Trinidad & Tobago"
            },
            {
              "value": "TA",
              "text": "Tristan da Cunha"
            },
            {
              "value": "TN",
              "text": "Tunisia"
            },
            {
              "value": "TR",
              "text": "Turkey"
            },
            {
              "value": "TM",
              "text": "Turkmenistan"
            },
            {
              "value": "TC",
              "text": "Turks & Caicos Islands"
            },
            {
              "value": "TV",
              "text": "Tuvalu"
            },
            {
              "value": "UM",
              "text": "U.S. Outlying Islands"
            },
            {
              "value": "VI",
              "text": "U.S. Virgin Islands"
            },
            {
              "value": "UG",
              "text": "Uganda"
            },
            {
              "value": "UA",
              "text": "Ukraine"
            },
            {
              "value": "AE",
              "text": "United Arab Emirates"
            },
            {
              "value": "GB",
              "text": "United Kingdom"
            },
            {
              "value": "US",
              "text": "United States"
            },
            {
              "value": "UY",
              "text": "Uruguay"
            },
            {
              "value": "UZ",
              "text": "Uzbekistan"
            },
            {
              "value": "VU",
              "text": "Vanuatu"
            },
            {
              "value": "VA",
              "text": "Vatican City"
            },
            {
              "value": "VE",
              "text": "Venezuela"
            },
            {
              "value": "VN",
              "text": "Vietnam"
            },
            {
              "value": "WF",
              "text": "Wallis & Futuna"
            },
            {
              "value": "EH",
              "text": "Western Sahara"
            },
            {
              "value": "YE",
              "text": "Yemen"
            },
            {
              "value": "ZM",
              "text": "Zambia"
            },
            {
              "value": "ZW",
              "text": "Zimbabwe"
            },
            {
              "value": "AX",
              "text": "\u00c5land Islands"
            }
          ]
        },
        {
          "type": "phoneNumber",
          "id": "mobileNumber",
          "label": "Mobile phone number",
          "error": "Please enter mobile phone number",
          "infotext": "When you have finished registering, you will be sent a text message with a confirmation code.",
          "style": {
            "width": "newLine"
          },
          "validation": {
            "required": true,
            "pattern": "mobilenumber"
          },
          "noAreaCode": true,
          "placeholder": {
            "countryCode": "0039",
            "number": "123456789"
          },
          "value": {
            "countryCode": "+39",
            "areaCode": "",
            "number": ""
          }
        },
        {
          "type": "select",
          "id": "preferredCity",
          "label": "Preferred city",
          "error": "Please select preferred city",
          "infotext": "Please select the city where you will mainly use DriveNow.",
          "value": 42756,
          "disabled": true,
          "validation": {
            "required": true
          },
          "options": [
            {
              "value": 42756,
              "text": "Milan"
            }
          ]
        },
        {
          "type": "date",
          "id": "age",
          "label": "Date of birth",
          "validation": {
            "required": true,
            "pattern": "date",
            "minYearsSince": 18
          },
          "infotext": "You must be at least 18 years old to use DriveNow.",
          "error": "Please select a valid date of birth",
          "order": [
            "day",
            "month",
            "year"
          ]
        },
        {
          "type": "codiceFiscale",
          "id": "codiceFiscale",
          "label": "Codice Fiscale",
          "infotext": "register.elements.codiceFiscale.infotext.IT",
          "validation": {
            "required": true,
            "pattern": "codiceFiscale"
          },
          "error": "Please enter a valid Codice Fiscale."
        },
        {
          "id": "businessTrips",
          "label": "I would like to use for business trips... (from webtranslateit)",
          "type": "checkbox"
        }
      ],
      "statusbarText": "Contact",
      "statusIconUrl": "\/assets\/desktop\/dynreg\/primarydetails.png",
      "statusIconUrlActive": "\/assets\/desktop\/dynreg\/primarydetails_active.png",
      "header": "Contact data"
    },
    {
      "activator": "businessTrips",
      "id": "businessTripsDetails",
      "removeTitle": false,
      "section": 2,
      "statusbar": false,
      "elements":
      [
        {
          "id": "companyEmailAddress",
          "label": "Business email address... (from webtranslateit)",
          "error": "Please enter valid email... (from webtranslateit)",
          "infotext": "Will also come from webtranslateit",
          "type": "input",
          "validation":
          {
            "required": true,
            "pattern": "email"
          }
        },
        {
          "id": "comapnyVAT",
          "label": "VAT.. (from webtranslateit)",
          "error": "Please enter valid VAT (from webtranslateit)",
          "infotext": "Will also come from webtranslateit",
          "type": "input",
          "validation":
          {
            "required": true
          }
        }
      ]
    },
    {
      "id": "secondaryDetailsActivator",
      "removeTitle": false,
      "section": 2,
      "statusbar": false,
      "elements":
      [
        {
          "id": "secondaryDetails",
          "label": "Invoice Address... (from webtranslateit)",
          "type": "checkbox"
        }
      ]
    },
    {
      "id": "driversLicense",
      "statusbar": true,
      "removeTitle": false,
      "section": 3,
      "elements": [
        {
          "type": "input",
          "id": "dlicNumber",
          "label": "Driving licence number",
          "error": "Please enter the number of your driving licence.",
          "style": {
            "width": "clear"
          },
          "validation": {
            "required": true,
            "maxLength": 20
          }
        },
        {
          "type": "select",
          "id": "dlicCountry",
          "label": "Issuing country",
          "error": "Please select the issuing country",
          "value": "IT",
          "validation": {
            "required": true
          },
          "infotext": "This is the country who provided you with your licence. For EU licences, this country's code is found on top left corner on the front side.",
          "options": [
            {
              "value": "IT",
              "text": "Italy"
            },
            {
              "value": "AD",
              "text": "Andorra"
            },
            {
              "value": "AR",
              "text": "Argentina"
            },
            {
              "value": "AU",
              "text": "Australia"
            },
            {
              "value": "AT",
              "text": "Austria"
            },
            {
              "value": "BE",
              "text": "Belgium"
            },
            {
              "value": "BR",
              "text": "Brazil"
            },
            {
              "value": "BG",
              "text": "Bulgaria"
            },
            {
              "value": "CA",
              "text": "Canada"
            },
            {
              "value": "CL",
              "text": "Chile"
            },
            {
              "value": "HR",
              "text": "Croatia"
            },
            {
              "value": "CY",
              "text": "Cyprus"
            },
            {
              "value": "CZ",
              "text": "Czech Republic"
            },
            {
              "value": "DK",
              "text": "Denmark"
            },
            {
              "value": "EE",
              "text": "Estonia"
            },
            {
              "value": "FI",
              "text": "Finland"
            },
            {
              "value": "FR",
              "text": "France"
            },
            {
              "value": "DE",
              "text": "Germany"
            },
            {
              "value": "GR",
              "text": "Greece"
            },
            {
              "value": "HU",
              "text": "Hungary"
            },
            {
              "value": "IS",
              "text": "Iceland"
            },
            {
              "value": "IE",
              "text": "Ireland"
            },
            {
              "value": "IL",
              "text": "Israel"
            },
            {
              "value": "JP",
              "text": "Japan"
            },
            {
              "value": "LV",
              "text": "Latvia"
            },
            {
              "value": "LI",
              "text": "Liechtenstein"
            },
            {
              "value": "LT",
              "text": "Lithuania"
            },
            {
              "value": "LU",
              "text": "Luxembourg"
            },
            {
              "value": "MT",
              "text": "Malta"
            },
            {
              "value": "MX",
              "text": "Mexico"
            },
            {
              "value": "MC",
              "text": "Monaco"
            },
            {
              "value": "NL",
              "text": "Netherlands"
            },
            {
              "value": "NZ",
              "text": "New Zealand"
            },
            {
              "value": "NO",
              "text": "Norway"
            },
            {
              "value": "PL",
              "text": "Poland"
            },
            {
              "value": "PT",
              "text": "Portugal"
            },
            {
              "value": "RO",
              "text": "Romania"
            },
            {
              "value": "RU",
              "text": "Russia"
            },
            {
              "value": "SG",
              "text": "Singapore"
            },
            {
              "value": "SK",
              "text": "Slovakia"
            },
            {
              "value": "SI",
              "text": "Slovenia"
            },
            {
              "value": "ZA",
              "text": "South Africa"
            },
            {
              "value": "KR",
              "text": "South Korea"
            },
            {
              "value": "ES",
              "text": "Spain"
            },
            {
              "value": "SE",
              "text": "Sweden"
            },
            {
              "value": "CH",
              "text": "Switzerland"
            },
            {
              "value": "TR",
              "text": "Turkey"
            },
            {
              "value": "UA",
              "text": "Ukraine"
            },
            {
              "value": "GB",
              "text": "United Kingdom"
            },
            {
              "value": "US",
              "text": "United States"
            },
            {
              "value": "UY",
              "text": "Uruguay"
            }
          ]
        },
        {
          "type": "date",
          "id": "dlicCdate",
          "label": "Valid from",
          "error": "Please select issuing date",
          "validation": {
            "required": true,
            "pattern": "date",
            "minYearsSince": 1
          },
          "infotext": "The validation from date is the date when you first passed your practical driving test. You must have driving experience for one year to use DriveNow.",
          "order": [
            "day",
            "month",
            "year"
          ]
        },
        {
          "type": "date",
          "id": "dlicExpDate",
          "label": "Expiration date (if given on your driving licence)",
          "error": "Please enter the expiration date",
          "infotext": "To use DriveNow you need to have a valid driving licence.",
          "validation": {
            "pattern": "date"
          },
          "inFuture": true,
          "maxYearsInFuture": 50,
          "order": [
            "day",
            "month",
            "year"
          ]
        }
      ],
      "statusbarText": "Licence",
      "statusIconUrl": "\/assets\/desktop\/dynreg\/driverslicense.png",
      "statusIconUrlActive": "\/assets\/desktop\/dynreg\/driverslicense_active.png",
      "header": "Driving licence"
    },
    {
      "id": "paymentDetails",
      "statusbar": true,
      "removeTitle": false,
      "section": 4,
      "elements": [
        {
          "type": "payment",
          "id": "payment",
          "error": "Please enter valid payment data",
          "validation": {
            "required": true
          },
          "methods": [
            "CC"
          ],
          "CCProviders": [
            "VISA",
            "MasterCard",
            "AmericanExpress",
            "DinersClub",
            "JCB"
          ],
          "CVCInfotext": "Your 3\/4-digit security code is located on the front or back of your credit card."
        }
      ],
      "statusbarText": "Payment",
      "statusIconUrl": "\/assets\/desktop\/dynreg\/paymentdetails.png",
      "statusIconUrlActive": "\/assets\/desktop\/dynreg\/paymentdetails_active.png",
      "header": "Payment data"
    },
    {
      "id": "registrationDetails",
      "statusbar": false,
      "removeTitle": false,
      "section": 4,
      "elements": [
        {
          "type": "promocode",
          "id": "promocode",
          "label": "Voucher code",
          "canAcceptPromocode": true
        },
        {
          "type": "label",
          "id": "approvalInfo",
          "label": "Conditions of contract",
          "infotext": "register.elements.approvalInfo.infotext.IT"
        },
        {
          "type": "checkbox",
          "id": "approveTos",
          "validation": {
            "required": true
          },
          "label": "I agree to the DriveNow <approval link='gtc'>General Terms and Conditions<\/approval>"
        },
        {
          "type": "checkbox",
          "id": "approvePrivacyPolicy",
          "validation": {
            "required": true
          },
          "label": "I agree to the DriveNow <approval link='privacy' >Privacy Policy<\/approval>"
        },
        {
          "type": "checkbox",
          "id": "approveExplictConsent",
          "validation": {
            "required": true
          },
          "label": "Il Cliente, dopo aver preso visione dei Termini e Condizioni Generali che regolano il rapporto, dichiara, ai sensi e per gli effetti di cui all\u2019art. 1341 del codice civile, di accettare integralmente ed approvare specificatamente le clausole di cui agli articoli: Articolo 2 (Disciplina del Servizio); Articolo 3 (Soggetti Autorizzati); Articolo 4.2 (Procedura di accesso al Veicolo); Articolo 6 (Prenotazione e Singoli Contratti di Noleggio); Articolo 8 (Utilizzo dei veicoli); Articolo 9 (Rifornimenti e Carta Carburante); Articolo 10 (Responsabilit\u00e0 di DriveNow); Articolo 11 (Responsabilit\u00e0, copertura assicurativa e franchigia del Cliente), Articolo 12 (Obblighi in caso di incidente, danno, difetto o furto); Articolo 13 (Termine del Contratto Singolo di Noleggio e Restituzione del Veicolo); Articolo 14 (Prezzo e Termini di Pagamento); Articolo 16 (Intervento del personale tecnico); Articolo 19 (Diritto di Recesso e Risoluzione contrattuale); Articolo 21 (Comunicazione sulla protezione dei dati); Articolo 22 (Clausole generali, legislazione e tribunale compente); Articolo 24 (Miscellanea)"
        },
        {
          "type": "checkbox",
          "id": "drivenowNewsletter",
          "label": "I would like to receive important information and news from DriveNow in my city. I can unsubscribe at any time via a link in DriveNow e-mails or in the Customer Area on the website."
        }
      ]
    }
  ]
}